<?xml version="1.0" encoding="utf-8"?>
<!-- Generator: Adobe Illustrator 21.0.0, SVG Export Plug-In . SVG Version: 6.00 Build 0)  -->
<svg version="1.1" id="Layer_1" xmlns="http://www.w3.org/2000/svg" xmlns:xlink="http://www.w3.org/1999/xlink" x="0px" y="0px"
	 width="1400px" height="980px" viewBox="0 0 1400 980" style="enable-background:new 0 0 1400 980;" xml:space="preserve">
<style type="text/css">
	.st0{fill-rule:evenodd;clip-rule:evenodd;fill:#E3686C;}
	.st1{fill-rule:evenodd;clip-rule:evenodd;fill:#EEDABF;}
	.st2{fill-rule:evenodd;clip-rule:evenodd;fill:#384E5B;}
	.st3{fill-rule:evenodd;clip-rule:evenodd;fill:#313C42;}
	.st4{fill-rule:evenodd;clip-rule:evenodd;fill:#48606E;}
	.st5{fill-rule:evenodd;clip-rule:evenodd;fill:#27353D;}
	.st6{fill-rule:evenodd;clip-rule:evenodd;fill:#2C3D47;}
	.st7{fill-rule:evenodd;clip-rule:evenodd;fill:#00CCFF;}
	.st8{fill-rule:evenodd;clip-rule:evenodd;fill:#00FFFF;}
	.st9{fill-rule:evenodd;clip-rule:evenodd;fill:#FFFFFF;}
	.st10{fill-rule:evenodd;clip-rule:evenodd;fill:#358FA6;}
	.st11{fill-rule:evenodd;clip-rule:evenodd;fill:#FFCC00;}
	.st12{fill-rule:evenodd;clip-rule:evenodd;fill:#30A657;}
	.st13{fill-rule:evenodd;clip-rule:evenodd;fill:#C24044;}
</style>
<g>
	<rect y="0" class="st0" width="1400" height="980"/>
	<path class="st1" d="M526.8,741.6c0,89.1,61.2,164.6,143.6,186.6V980h267.4v-45.2v-70.9V548.5H526.8V741.6z"/>
	<path class="st2" d="M828,172.7H586.7c-23.2,0-42.1,18.9-42.1,42.1v550.5c0,23.1,18.9,42.1,42.1,42.1H828
		c23.2,0,42.1-18.9,42.1-42.1V214.8C870.1,191.6,851.1,172.7,828,172.7z"/>
	<path class="st3" d="M742.4,241.6v196.1c0,7.3,6,13.3,13.3,13.3H766l17.6,17.6c1.7,1.7,4.4,1.7,6.1,0l17.6-17.6h62.7V228.3H755.7
		C748.3,228.3,742.4,234.3,742.4,241.6z"/>
	<path class="st4" d="M828,172.7H586.7c-23.2,0-42.1,18.9-42.1,42.1v550.5c0,5,0.9,9.9,2.6,14.4l312.5-592.4
		C852,178.3,840.6,172.7,828,172.7z"/>
	<path class="st5" d="M708.5,293.5H544.6V393h109.2l17.6,17.6c1.7,1.7,4.4,1.7,6.1,0l17.6-17.6h13.3c3.9,0,7-3.1,7-7v-85.5
		C715.5,296.7,712.3,293.5,708.5,293.5z"/>
	<rect x="575.8" y="244.7" class="st4" width="263.1" height="445.2"/>
	<path class="st3" d="M742.4,437.7c0,7.3,6,13.3,13.3,13.3H766l17.6,17.6c1.7,1.7,4.4,1.7,6.1,0l17.6-17.6h31.5V244.7h-96.5V437.7z"
		/>
	<path class="st3" d="M708.5,566.1H575.8v99.5h78l17.6,17.6c1.7,1.7,4.4,1.7,6.1,0l17.6-17.6h13.3c3.9,0,7-3.2,7-7v-85.5
		C715.5,569.2,712.3,566.1,708.5,566.1z"/>
	<path class="st3" d="M708.5,293.5H575.8V393h78l17.6,17.6c1.7,1.7,4.4,1.7,6.1,0l17.6-17.6h13.3c3.9,0,7-3.1,7-7v-85.5
		C715.5,296.7,712.3,293.5,708.5,293.5z"/>
	<path class="st3" d="M708.5,429.8H575.8v99.5h78l17.6,17.6c1.7,1.7,4.4,1.7,6.1,0l17.6-17.6h13.3c3.9,0,7-3.2,7-7v-85.5
		C715.5,432.9,712.3,429.8,708.5,429.8z"/>
	<circle class="st5" cx="707.4" cy="745.4" r="30.6"/>
	<circle class="st5" cx="629.9" cy="220.1" r="5.3"/>
	<path class="st5" d="M755.3,214.6h-95.9c-2.9,0-5.3,2.4-5.3,5.3c0,2.9,2.4,5.3,5.3,5.3h95.9c2.9,0,5.3-2.4,5.3-5.3
		C760.6,217,758.2,214.6,755.3,214.6z"/>
	<path class="st6" d="M573.7,242.6V692H841V242.6H575.8H573.7z M577.9,246.8h258.9v441.1H577.9V246.8z"/>
	<path class="st7" d="M951.7,210.4H755.7c-7.3,0-13.3,6-13.3,13.3v196.1c0,7.3,6,13.3,13.3,13.3H766l17.6,17.6
		c1.7,1.7,4.4,1.7,6.1,0l17.6-17.6h144.3c7.3,0,13.3-6,13.3-13.3V223.6C965,216.3,959.1,210.4,951.7,210.4z"/>
	<path class="st8" d="M951.7,210.4H755.7c-7.3,0-13.3,6-13.3,13.3V338H965V223.6C965,216.3,959.1,210.4,951.7,210.4z"/>
	<g>
		<rect x="779.6" y="369.7" class="st9" width="148.1" height="5.1"/>
		<rect x="779.6" y="379.5" class="st9" width="148.1" height="5.1"/>
		<rect x="779.6" y="389.4" class="st9" width="148.1" height="5.1"/>
		<rect x="779.6" y="399.2" class="st9" width="97.6" height="5.1"/>
	</g>
	<g>
		<path class="st10" d="M925.5,277.2L860.2,245l-8-3.9c-8.6-4.3-12.8-5.1-18,2.2L822.1,262c-10.7,16.4-20,13.5-27.4,6.7l-9.8-9
			c-3.6-3.3-9.9-2.9-11.2,4l-2.7,13.6c-1,4.9-1.1,10.2,0,15.1l2.2,9.6c1,4.6,3.9,8.6,8.6,8.6h142.8c7,0,12.7-5.7,12.7-12.7V289
			C937.2,282.5,931.3,280.1,925.5,277.2z"/>
		<path class="st9" d="M773.1,302c1,4.6,3.9,8.6,8.6,8.6h142.8c7,0,12.7-5.7,12.7-12.7v-5.5H771L773.1,302z"/>
	</g>
	<rect x="779.6" y="353.5" class="st9" width="61.5" height="9.2"/>
	<path class="st1" d="M901.1,496.2l-80.4-21.6c-26.3-7-53.6,8.7-60.6,35c-7,26.3,8.7,53.5,35,60.6l80.4,21.6
		c26.3,7,53.5-8.7,60.6-35C943.1,530.5,927.4,503.2,901.1,496.2z"/>
	<g>
		<path class="st7" d="M708.5,268.9H433.9c-3.9,0-7,3.2-7,7v85.5c0,3.9,3.2,7,7,7h219.9l17.6,17.6c1.7,1.7,4.4,1.7,6.1,0l17.6-17.6
			h13.3c3.9,0,7-3.2,7-7v-85.5C715.5,272.1,712.3,268.9,708.5,268.9z"/>
		<rect x="511.7" y="306.3" class="st9" width="148.1" height="5.1"/>
		<rect x="511.7" y="316.1" class="st9" width="148.1" height="5.1"/>
		<rect x="511.7" y="326" class="st9" width="148.1" height="5.1"/>
		<rect x="511.7" y="335.8" class="st9" width="97.6" height="5.1"/>
		<polygon class="st11" points="525.2,291.8 523.3,286.2 521.5,291.8 515.6,291.8 520.4,295.3 518.6,300.9 523.3,297.4 528.1,300.9 
			526.3,295.3 531.1,291.8 		"/>
		<polygon class="st11" points="543.4,291.8 541.6,286.2 539.7,291.8 533.9,291.8 538.6,295.3 536.8,300.9 541.6,297.4 546.3,300.9 
			544.5,295.3 549.3,291.8 		"/>
		<polygon class="st11" points="561.6,291.8 559.8,286.2 558,291.8 552.1,291.8 556.8,295.3 555,300.9 559.8,297.4 564.5,300.9 
			562.7,295.3 567.5,291.8 		"/>
		<polygon class="st10" points="579.8,291.8 578,286.2 576.2,291.8 570.3,291.8 575.1,295.3 573.2,300.9 578,297.4 582.7,300.9 
			580.9,295.3 585.7,291.8 		"/>
		<polygon class="st10" points="598,291.8 596.2,286.2 594.4,291.8 588.5,291.8 593.3,295.3 591.4,300.9 596.2,297.4 601,300.9 
			599.1,295.3 603.9,291.8 		"/>
		<circle class="st12" cx="470.2" cy="318.7" r="27.9"/>
		<path class="st9" d="M476.5,314.5c1.1-1.4,1.8-3.2,1.8-5.1c0-4.5-3.6-8.1-8.1-8.1c-4.5,0-8.1,3.6-8.1,8.1c0,1.9,0.7,3.7,1.8,5.1
			c-3.2,1.9-5.3,5.4-5.3,9.3v9.2c0,1.6,1.3,2.9,2.9,2.9h17.2c1.6,0,2.9-1.3,2.9-2.9v-9.2C481.8,319.9,479.6,316.5,476.5,314.5z"/>
	</g>
	<path class="st1" d="M631.3,463.5H522.3c-18.5,0-33.7,15.2-33.7,33.7v0c0,18.5,15.1,33.7,33.7,33.7h109.1
		c18.5,0,33.7-15.2,33.7-33.7v0C665,478.7,649.8,463.5,631.3,463.5z"/>
	<path class="st1" d="M631.3,685.5H522.3c-18.5,0-33.7,15.1-33.7,33.7c0,18.5,15.1,33.7,33.7,33.7h109.1c18.5,0,33.7-15.1,33.7-33.7
		C665,700.7,649.8,685.5,631.3,685.5z"/>
	<path class="st1" d="M631.3,611.5H522.3c-18.5,0-33.7,15.1-33.7,33.7v0c0,18.5,15.1,33.7,33.7,33.7h109.1
		c18.5,0,33.7-15.2,33.7-33.7v0C665,626.7,649.8,611.5,631.3,611.5z"/>
	<path class="st1" d="M631.3,537.5H522.3c-18.5,0-33.7,15.1-33.7,33.7c0,18.5,15.1,33.7,33.7,33.7h109.1c18.5,0,33.7-15.2,33.7-33.7
		C665,552.7,649.8,537.5,631.3,537.5z"/>
	<g>
		<path class="st7" d="M708.5,405.2H433.9c-3.9,0-7,3.2-7,7v85.5c0,3.9,3.2,7,7,7h219.9l17.6,17.6c1.7,1.7,4.4,1.7,6.1,0l17.6-17.6
			h13.3c3.9,0,7-3.2,7-7v-85.5C715.5,408.4,712.3,405.2,708.5,405.2z"/>
		<rect x="511.7" y="442.6" class="st9" width="148.1" height="5.1"/>
		<rect x="511.7" y="452.4" class="st9" width="148.1" height="5.1"/>
		<rect x="511.7" y="462.3" class="st9" width="148.1" height="5.1"/>
		<rect x="511.7" y="472.1" class="st9" width="97.6" height="5.1"/>
		<polygon class="st11" points="525.2,428.1 523.3,422.5 521.5,428.1 515.6,428.1 520.4,431.6 518.6,437.2 523.3,433.7 528.1,437.2 
			526.3,431.6 531.1,428.1 		"/>
		<polygon class="st11" points="543.4,428.1 541.6,422.5 539.7,428.1 533.9,428.1 538.6,431.6 536.8,437.2 541.6,433.7 546.3,437.2 
			544.5,431.6 549.3,428.1 		"/>
		<polygon class="st11" points="561.6,428.1 559.8,422.5 558,428.1 552.1,428.1 556.8,431.6 555,437.2 559.8,433.7 564.5,437.2 
			562.7,431.6 567.5,428.1 		"/>
		<polygon class="st11" points="579.8,428.1 578,422.5 576.2,428.1 570.3,428.1 575.1,431.6 573.2,437.2 578,433.7 582.7,437.2 
			580.9,431.6 585.7,428.1 		"/>
		<polygon class="st11" points="598,428.1 596.2,422.5 594.4,428.1 588.5,428.1 593.3,431.6 591.4,437.2 596.2,433.7 601,437.2 
			599.1,431.6 603.9,428.1 		"/>
		<circle class="st10" cx="470.2" cy="455" r="27.9"/>
		<path class="st9" d="M476.5,450.8c1.1-1.4,1.8-3.2,1.8-5.1c0-4.5-3.6-8.1-8.1-8.1c-4.5,0-8.1,3.6-8.1,8.1c0,1.9,0.7,3.7,1.8,5.1
			c-3.2,1.9-5.3,5.4-5.3,9.3v9.2c0,1.6,1.3,2.9,2.9,2.9h17.2c1.6,0,2.9-1.3,2.9-2.9v-9.2C481.8,456.2,479.6,452.8,476.5,450.8z"/>
	</g>
	<g>
		<path class="st7" d="M708.5,541.5H433.9c-3.9,0-7,3.1-7,7V634c0,3.9,3.2,7,7,7h219.9l17.6,17.6c1.7,1.7,4.4,1.7,6.1,0l17.6-17.6
			h13.3c3.9,0,7-3.1,7-7v-85.5C715.5,544.7,712.3,541.5,708.5,541.5z"/>
		<rect x="511.7" y="578.9" class="st9" width="148.1" height="5.1"/>
		<rect x="511.7" y="588.7" class="st9" width="148.1" height="5.1"/>
		<rect x="511.7" y="598.6" class="st9" width="148.1" height="5.1"/>
		<rect x="511.7" y="608.4" class="st9" width="97.6" height="5.1"/>
		<polygon class="st11" points="525.2,564.4 523.3,558.8 521.5,564.4 515.6,564.4 520.4,567.9 518.6,573.5 523.3,570 528.1,573.5 
			526.3,567.9 531.1,564.4 		"/>
		<polygon class="st11" points="543.4,564.4 541.6,558.8 539.7,564.4 533.9,564.4 538.6,567.9 536.8,573.5 541.6,570 546.3,573.5 
			544.5,567.9 549.3,564.4 		"/>
		<polygon class="st10" points="561.6,564.4 559.8,558.8 558,564.4 552.1,564.4 556.8,567.9 555,573.5 559.8,570 564.5,573.5 
			562.7,567.9 567.5,564.4 		"/>
		<polygon class="st10" points="579.8,564.4 578,558.8 576.2,564.4 570.3,564.4 575.1,567.9 573.2,573.5 578,570 582.7,573.5 
			580.9,567.9 585.7,564.4 		"/>
		<polygon class="st10" points="598,564.4 596.2,558.8 594.4,564.4 588.5,564.4 593.3,567.9 591.4,573.5 596.2,570 601,573.5 
			599.1,567.9 603.9,564.4 		"/>
		<circle class="st13" cx="470.2" cy="591.3" r="27.9"/>
		<path class="st9" d="M476.5,587.1c1.1-1.4,1.8-3.2,1.8-5.1c0-4.5-3.6-8.1-8.1-8.1c-4.5,0-8.1,3.6-8.1,8.1c0,1.9,0.7,3.7,1.8,5.1
			c-3.2,1.9-5.3,5.4-5.3,9.3v9.2c0,1.6,1.3,2.9,2.9,2.9h17.2c1.6,0,2.9-1.3,2.9-2.9v-9.2C481.8,592.5,479.6,589,476.5,587.1z"/>
	</g>
</g>
</svg>
